{
  "success": true,
  "orders": {
    "current_page": 1,
    "last_page": 2,
    "per_page": 1,
    "total": 2,
    "data": [
      {
        "id": "synthetic-order-1001",
        "order_number": "DEMO-1001",
        "status": "processing",
        "payment_status": "paid",
        "total": "12500.50",
        "currency_code": "NGN",
        "customer_details": {
          "first_name": "Synthetic",
          "phone": "+2340000000001"
        },
        "items": [
          {
            "id": "synthetic-item-1",
            "name": "Synthetic Product",
            "price": "12500.50",
            "quantity": 1,
            "total": "12500.50"
          }
        ]
      }
    ]
  }
}
